%!PS-Adobe-3.0
%%BoundingBox: 38 24 574 768
%%Title: Enscript Output
%%For: Wesley Mackey
%%Creator: GNU enscript 1.6.4
%%CreationDate: Wed Oct 16 17:10:33 2013
%%Orientation: Portrait
%%Pages: (atend)
%%DocumentMedia: Letter 612 792 0 () ()
%%DocumentNeededResources: (atend)
%%EndComments
%%BeginProlog
%%BeginResource: procset Enscript-Prolog 1.6 4
%
% Procedures.
%

/_S {	% save current state
  /_s save def
} def
/_R {	% restore from saved state
  _s restore
} def

/S {	% showpage protecting gstate
  gsave
  showpage
  grestore
} bind def

/MF {	% fontname newfontname -> -	make a new encoded font
  /newfontname exch def
  /fontname exch def

  /fontdict fontname findfont def
  /newfont fontdict maxlength dict def

  fontdict {
    exch
    dup /FID eq {
      % skip FID pair
      pop pop
    } {
      % copy to the new font dictionary
      exch newfont 3 1 roll put
    } ifelse
  } forall

  newfont /FontName newfontname put

  % insert only valid encoding vectors
  encoding_vector length 256 eq {
    newfont /Encoding encoding_vector put
  } if

  newfontname newfont definefont pop
} def

/MF_PS { % fontname newfontname -> -	make a new font preserving its enc
  /newfontname exch def
  /fontname exch def

  /fontdict fontname findfont def
  /newfont fontdict maxlength dict def

  fontdict {
    exch
    dup /FID eq {
      % skip FID pair
      pop pop
    } {
      % copy to the new font dictionary
      exch newfont 3 1 roll put
    } ifelse
  } forall

  newfont /FontName newfontname put

  newfontname newfont definefont pop
} def

/SF { % fontname width height -> -	set a new font
  /height exch def
  /width exch def

  findfont
  [width 0 0 height 0 0] makefont setfont
} def

/SUF { % fontname width height -> -	set a new user font
  /height exch def
  /width exch def

  /F-gs-user-font MF
  /F-gs-user-font width height SF
} def

/SUF_PS { % fontname width height -> -	set a new user font preserving its enc
  /height exch def
  /width exch def

  /F-gs-user-font MF_PS
  /F-gs-user-font width height SF
} def

/M {moveto} bind def
/s {show} bind def

/Box {	% x y w h -> -			define box path
  /d_h exch def /d_w exch def /d_y exch def /d_x exch def
  d_x d_y  moveto
  d_w 0 rlineto
  0 d_h rlineto
  d_w neg 0 rlineto
  closepath
} def

/bgs {	% x y height blskip gray str -> -	show string with bg color
  /str exch def
  /gray exch def
  /blskip exch def
  /height exch def
  /y exch def
  /x exch def

  gsave
    x y blskip sub str stringwidth pop height Box
    gray setgray
    fill
  grestore
  x y M str s
} def

/bgcs { % x y height blskip red green blue str -> -  show string with bg color
  /str exch def
  /blue exch def
  /green exch def
  /red exch def
  /blskip exch def
  /height exch def
  /y exch def
  /x exch def

  gsave
    x y blskip sub str stringwidth pop height Box
    red green blue setrgbcolor
    fill
  grestore
  x y M str s
} def

% Highlight bars.
/highlight_bars {	% nlines lineheight output_y_margin gray -> -
  gsave
    setgray
    /ymarg exch def
    /lineheight exch def
    /nlines exch def

    % This 2 is just a magic number to sync highlight lines to text.
    0 d_header_y ymarg sub 2 sub translate

    /cw d_output_w cols div def
    /nrows d_output_h ymarg 2 mul sub lineheight div cvi def

    % for each column
    0 1 cols 1 sub {
      cw mul /xp exch def

      % for each rows
      0 1 nrows 1 sub {
        /rn exch def
        rn lineheight mul neg /yp exch def
        rn nlines idiv 2 mod 0 eq {
	  % Draw highlight bar.  4 is just a magic indentation.
	  xp 4 add yp cw 8 sub lineheight neg Box fill
	} if
      } for
    } for

  grestore
} def

% Line highlight bar.
/line_highlight {	% x y width height gray -> -
  gsave
    /gray exch def
    Box gray setgray fill
  grestore
} def

% Column separator lines.
/column_lines {
  gsave
    .1 setlinewidth
    0 d_footer_h translate
    /cw d_output_w cols div def
    1 1 cols 1 sub {
      cw mul 0 moveto
      0 d_output_h rlineto stroke
    } for
  grestore
} def

% Column borders.
/column_borders {
  gsave
    .1 setlinewidth
    0 d_footer_h moveto
    0 d_output_h rlineto
    d_output_w 0 rlineto
    0 d_output_h neg rlineto
    closepath stroke
  grestore
} def

% Do the actual underlay drawing
/draw_underlay {
  ul_style 0 eq {
    ul_str true charpath stroke
  } {
    ul_str show
  } ifelse
} def

% Underlay
/underlay {	% - -> -
  gsave
    0 d_page_h translate
    d_page_h neg d_page_w atan rotate

    ul_gray setgray
    ul_font setfont
    /dw d_page_h dup mul d_page_w dup mul add sqrt def
    ul_str stringwidth pop dw exch sub 2 div ul_h_ptsize -2 div moveto
    draw_underlay
  grestore
} def

/user_underlay {	% - -> -
  gsave
    ul_x ul_y translate
    ul_angle rotate
    ul_gray setgray
    ul_font setfont
    0 0 ul_h_ptsize 2 div sub moveto
    draw_underlay
  grestore
} def

% Page prefeed
/page_prefeed {		% bool -> -
  statusdict /prefeed known {
    statusdict exch /prefeed exch put
  } {
    pop
  } ifelse
} def

% Wrapped line markers
/wrapped_line_mark {	% x y charwith charheight type -> -
  /type exch def
  /h exch def
  /w exch def
  /y exch def
  /x exch def

  type 2 eq {
    % Black boxes (like TeX does)
    gsave
      0 setlinewidth
      x w 4 div add y M
      0 h rlineto w 2 div 0 rlineto 0 h neg rlineto
      closepath fill
    grestore
  } {
    type 3 eq {
      % Small arrows
      gsave
        .2 setlinewidth
        x w 2 div add y h 2 div add M
        w 4 div 0 rlineto
        x w 4 div add y lineto stroke

        x w 4 div add w 8 div add y h 4 div add M
        x w 4 div add y lineto
	w 4 div h 8 div rlineto stroke
      grestore
    } {
      % do nothing
    } ifelse
  } ifelse
} def

% EPSF import.

/BeginEPSF {
  /b4_Inc_state save def    		% Save state for cleanup
  /dict_count countdictstack def	% Count objects on dict stack
  /op_count count 1 sub def		% Count objects on operand stack
  userdict begin
  /showpage { } def
  0 setgray 0 setlinecap
  1 setlinewidth 0 setlinejoin
  10 setmiterlimit [ ] 0 setdash newpath
  /languagelevel where {
    pop languagelevel
    1 ne {
      false setstrokeadjust false setoverprint
    } if
  } if
} bind def

/EndEPSF {
  count op_count sub { pos } repeat	% Clean up stacks
  countdictstack dict_count sub { end } repeat
  b4_Inc_state restore
} bind def

% Check PostScript language level.
/languagelevel where {
  pop /gs_languagelevel languagelevel def
} {
  /gs_languagelevel 1 def
} ifelse
%%EndResource
%%BeginResource: procset Enscript-Encoding-88591 1.6 4
/encoding_vector [
/.notdef      	/.notdef      	/.notdef      	/.notdef      	
/.notdef      	/.notdef      	/.notdef      	/.notdef      	
/.notdef      	/.notdef      	/.notdef      	/.notdef      	
/.notdef      	/.notdef      	/.notdef      	/.notdef      	
/.notdef      	/.notdef      	/.notdef      	/.notdef      	
/.notdef      	/.notdef      	/.notdef      	/.notdef      	
/.notdef      	/.notdef      	/.notdef      	/.notdef      	
/.notdef      	/.notdef      	/.notdef      	/.notdef      	
/space        	/exclam       	/quotedbl     	/numbersign   	
/dollar       	/percent      	/ampersand    	/quoteright   	
/parenleft    	/parenright   	/asterisk     	/plus         	
/comma        	/hyphen       	/period       	/slash        	
/zero         	/one          	/two          	/three        	
/four         	/five         	/six          	/seven        	
/eight        	/nine         	/colon        	/semicolon    	
/less         	/equal        	/greater      	/question     	
/at           	/A            	/B            	/C            	
/D            	/E            	/F            	/G            	
/H            	/I            	/J            	/K            	
/L            	/M            	/N            	/O            	
/P            	/Q            	/R            	/S            	
/T            	/U            	/V            	/W            	
/X            	/Y            	/Z            	/bracketleft  	
/backslash    	/bracketright 	/asciicircum  	/underscore   	
/quoteleft    	/a            	/b            	/c            	
/d            	/e            	/f            	/g            	
/h            	/i            	/j            	/k            	
/l            	/m            	/n            	/o            	
/p            	/q            	/r            	/s            	
/t            	/u            	/v            	/w            	
/x            	/y            	/z            	/braceleft    	
/bar          	/braceright   	/tilde        	/.notdef      	
/.notdef      	/.notdef      	/.notdef      	/.notdef      	
/.notdef      	/.notdef      	/.notdef      	/.notdef      	
/.notdef      	/.notdef      	/.notdef      	/.notdef      	
/.notdef      	/.notdef      	/.notdef      	/.notdef      	
/.notdef      	/.notdef      	/.notdef      	/.notdef      	
/.notdef      	/.notdef      	/.notdef      	/.notdef      	
/.notdef      	/.notdef      	/.notdef      	/.notdef      	
/.notdef      	/.notdef      	/.notdef      	/.notdef      	
/space        	/exclamdown   	/cent         	/sterling     	
/currency     	/yen          	/brokenbar    	/section      	
/dieresis     	/copyright    	/ordfeminine  	/guillemotleft	
/logicalnot   	/hyphen       	/registered   	/macron       	
/degree       	/plusminus    	/twosuperior  	/threesuperior	
/acute        	/mu           	/paragraph    	/bullet       	
/cedilla      	/onesuperior  	/ordmasculine 	/guillemotright	
/onequarter   	/onehalf      	/threequarters	/questiondown 	
/Agrave       	/Aacute       	/Acircumflex  	/Atilde       	
/Adieresis    	/Aring        	/AE           	/Ccedilla     	
/Egrave       	/Eacute       	/Ecircumflex  	/Edieresis    	
/Igrave       	/Iacute       	/Icircumflex  	/Idieresis    	
/Eth          	/Ntilde       	/Ograve       	/Oacute       	
/Ocircumflex  	/Otilde       	/Odieresis    	/multiply     	
/Oslash       	/Ugrave       	/Uacute       	/Ucircumflex  	
/Udieresis    	/Yacute       	/Thorn        	/germandbls   	
/agrave       	/aacute       	/acircumflex  	/atilde       	
/adieresis    	/aring        	/ae           	/ccedilla     	
/egrave       	/eacute       	/ecircumflex  	/edieresis    	
/igrave       	/iacute       	/icircumflex  	/idieresis    	
/eth          	/ntilde       	/ograve       	/oacute       	
/ocircumflex  	/otilde       	/odieresis    	/divide       	
/oslash       	/ugrave       	/uacute       	/ucircumflex  	
/udieresis    	/yacute       	/thorn        	/ydieresis    	
] def
%%EndResource
%%EndProlog
%%BeginSetup
%%IncludeResource: font Courier-Bold
/HFpt_w 10 def
/HFpt_h 10 def
/Courier-Bold /HF-gs-font MF
/HF /HF-gs-font findfont [HFpt_w 0 0 HFpt_h 0 0] makefont def
/Courier-Bold /F-gs-font MF
/F-gs-font 12 12 SF
/#copies 1 def
% Pagedevice definitions:
gs_languagelevel 1 gt {
  <<
    /PageSize [612 792] 
  >> setpagedevice
} if
%%BeginResource: procset Enscript-Header-enscript 1.6 4
%%IncludeResource: font Times-Bold
%%IncludeResource: font Times-Roman

% Fonts.
/Times-Bold /HeaderFont-Bold MF
/HeaderDateF /HeaderFont-Bold findfont 12 scalefont def

/Times-Roman /HeaderFont-Times MF
/HeaderHDRF /HeaderFont-Times findfont 14 scalefont def

/HeaderPageNumF /Helvetica-Bold findfont 28.8 scalefont def

/do_header {	% print enscript header
  gsave
    d_header_x d_header_y translate

    % light bar
    0 0 d_header_w d_header_h 2 div Box
    .95 setgray fill

    % dark gray boxes
    /dbw d_header_h 2 mul def	% dark box width
    /dbc .7 def			% dark box color

    % left dark box.
    0 0 dbw d_header_h Box
    dbc setgray fill

    0 setgray 
    HeaderDateF setfont
    moddatestr dup stringwidth pop dbw exch sub 2 div 
    d_header_h 2 div 2 add moveto show
    modtimestr dup stringwidth pop dbw exch sub 2 div 
    d_header_h 5 div moveto show

    % right dark box
    d_header_w dbw sub 0 dbw d_header_h Box
    dbc setgray fill

    HeaderPageNumF setfont
    1 setgray
    pagenumstr dup
    stringwidth pop dbw exch sub 2 div d_header_w dbw sub add
    d_header_h .2 mul moveto show

    % filename
    0 setgray 
    HeaderHDRF setfont
    d_header_w fname stringwidth pop sub 2 div d_header_h 8 div moveto
    fname show

    % user supplied header string.
    user_header_p {
      /h d_header_h 8 div 5 mul def

      % Implement strict enscript compatibility.
      user_header_center_str () eq user_header_right_str () eq and {
        d_header_w user_header_left_str stringwidth pop sub 2 div 
        h moveto user_header_left_str show
      } {
        dbw 5 add h moveto user_header_left_str show

        d_header_w user_header_center_str stringwidth pop sub 2 div 
        h moveto user_header_center_str show

	d_header_w dbw sub 5 sub user_header_right_str stringwidth pop
	sub h moveto user_header_right_str show
      } ifelse
    } if

  grestore
} def
%%EndResource
/d_page_w 536 def
/d_page_h 744 def
/d_header_x 0 def
/d_header_y 708 def
/d_header_w 536 def
/d_header_h 36 def
/d_footer_x 0 def
/d_footer_y 0 def
/d_footer_w 536 def
/d_footer_h 0 def
/d_output_w 536 def
/d_output_h 708 def
/cols 1 def
%%EndSetup
%%Page: (1) 1
%%BeginPageSetup
_S
38 24 translate
/pagenum 1 def
/fname (jxref.java) def
/fdir () def
/ftail (jxref.java) def
% User defined strings:
/pagenumstr (1) def
/moddatestr (10/16/13) def
/modtimestr (17:10:33) def
/user_header_p true def
/user_header_left_str ($cmps012b-wm/Assignments/asg2j-jxref-lists/code/) def
/user_header_center_str () def
/user_header_right_str () def
/user_footer_p false def
%%EndPageSetup
column_borders
do_header
34.8 693 M (1:) s
56.4 693 M
(// $Id: jxref.java,v 1.8 2013-10-16 17:10:32-07 - - $) s
34.8 680 M (2:) s
34.8 667 M (3:) s
56.4 667 M
(import java.io.*;) s
34.8 654 M (4:) s
56.4 654 M
(import java.util.Iterator;) s
34.8 641 M (5:) s
56.4 641 M
(import java.util.Map.Entry;) s
34.8 628 M (6:) s
56.4 628 M
(import java.util.NoSuchElementException;) s
34.8 615 M (7:) s
56.4 615 M
(import java.util.Scanner;) s
34.8 602 M (8:) s
56.4 602 M
(import java.util.regex.Matcher;) s
34.8 589 M (9:) s
56.4 589 M
(import java.util.regex.Pattern;) s
27.6 576 M (10:) s
56.4 576 M
(import static java.lang.System.*;) s
27.6 563 M (11:) s
27.6 550 M (12:) s
56.4 550 M
(class jxref {) s
27.6 537 M (13:) s
56.4 537 M
(   private static final String STDIN_FILENAME = "-";) s
27.6 524 M (14:) s
56.4 524 M
(   private static final String REGEX = "\\\\w+\([-'.:/]\\\\w+\)*";) s
27.6 511 M (15:) s
56.4 511 M
(   private static final Pattern PATTERN = Pattern.compile\(REGEX\);) s
27.6 498 M (16:) s
27.6 485 M (17:) s
56.4 485 M
(   private static void xref_file \(String filename, Scanner file\){) s
27.6 472 M (18:) s
56.4 472 M
(      misc.trace \("filename", filename\);) s
27.6 459 M (19:) s
56.4 459 M
(      listmap map = new listmap\(\);) s
27.6 446 M (20:) s
56.4 446 M
(      for \(int linenr = 1; file.hasNextLine\(\); ++linenr\) {) s
27.6 433 M (21:) s
56.4 433 M
(         String line = file.nextLine\(\);) s
27.6 420 M (22:) s
56.4 420 M
(         misc.trace \(filename, linenr, line\);) s
27.6 407 M (23:) s
56.4 407 M
(         Matcher match = PATTERN.matcher \(line\);) s
27.6 394 M (24:) s
56.4 394 M
(         while \(match.find\(\)\) {) s
27.6 381 M (25:) s
56.4 381 M
(            String word = match.group\(\);) s
27.6 368 M (26:) s
56.4 368 M
(            misc.trace \("word", word\);) s
27.6 355 M (27:) s
56.4 355 M
(            //FIXME) s
27.6 342 M (28:) s
56.4 342 M
(         }) s
27.6 329 M (29:) s
56.4 329 M
(      }) s
27.6 316 M (30:) s
56.4 316 M
(      for \(Entry<String, intqueue> entry: map\) {) s
27.6 303 M (31:) s
56.4 303 M
(         misc.trace \("STUB", entry,) s
27.6 290 M (32:) s
56.4 290 M
(                     entry.getKey\(\), entry.getValue\(\)\);) s
27.6 277 M (33:) s
56.4 277 M
(         //FIXME) s
27.6 264 M (34:) s
56.4 264 M
(      }) s
27.6 251 M (35:) s
56.4 251 M
(   }) s
27.6 238 M (36:) s
_R
S
%%Page: (2) 2
%%BeginPageSetup
_S
38 24 translate
/pagenum 2 def
/fname (jxref.java) def
/fdir () def
/ftail (jxref.java) def
% User defined strings:
/pagenumstr (2) def
/moddatestr (10/16/13) def
/modtimestr (17:10:33) def
/user_header_p true def
/user_header_left_str ($cmps012b-wm/Assignments/asg2j-jxref-lists/code/) def
/user_header_center_str () def
/user_header_right_str () def
/user_footer_p false def
%%EndPageSetup
column_borders
do_header
27.6 693 M (37:) s
27.6 680 M (38:) s
56.4 680 M
(   // For each filename, open the file, cross reference it,) s
27.6 667 M (39:) s
56.4 667 M
(   // and print.) s
27.6 654 M (40:) s
56.4 654 M
(   private static void xref_filename \(String filename\) {) s
27.6 641 M (41:) s
56.4 641 M
(      if \(filename.equals \(STDIN_FILENAME\)\) {) s
27.6 628 M (42:) s
56.4 628 M
(         xref_file \(filename, new Scanner \(System.in\)\);) s
27.6 615 M (43:) s
56.4 615 M
(      }else {) s
27.6 602 M (44:) s
56.4 602 M
(         try {) s
27.6 589 M (45:) s
56.4 589 M
(            Scanner file = new Scanner \(new File \(filename\)\);) s
27.6 576 M (46:) s
56.4 576 M
(            xref_file \(filename, file\);) s
27.6 563 M (47:) s
56.4 563 M
(            file.close\(\);) s
27.6 550 M (48:) s
56.4 550 M
(         }catch \(IOException error\) {) s
27.6 537 M (49:) s
56.4 537 M
(            misc.warn \(error.getMessage\(\)\);) s
27.6 524 M (50:) s
56.4 524 M
(         }) s
27.6 511 M (51:) s
56.4 511 M
(      }) s
27.6 498 M (52:) s
56.4 498 M
(   }) s
27.6 485 M (53:) s
27.6 472 M (54:) s
56.4 472 M
(   // Main function scans arguments to cross reference files.) s
27.6 459 M (55:) s
56.4 459 M
(   public static void main \(String[] args\) {) s
27.6 446 M (56:) s
56.4 446 M
(      if \(args.length == 0\) {) s
27.6 433 M (57:) s
56.4 433 M
(         xref_filename \(STDIN_FILENAME\);) s
27.6 420 M (58:) s
56.4 420 M
(      }else {) s
27.6 407 M (59:) s
56.4 407 M
(         for \(String filename: args\) {) s
27.6 394 M (60:) s
56.4 394 M
(            xref_filename \(filename\);) s
27.6 381 M (61:) s
56.4 381 M
(         }) s
27.6 368 M (62:) s
56.4 368 M
(      }) s
27.6 355 M (63:) s
56.4 355 M
(      exit \(misc.exit_status\);) s
27.6 342 M (64:) s
56.4 342 M
(   }) s
27.6 329 M (65:) s
27.6 316 M (66:) s
56.4 316 M
(}) s
27.6 303 M (67:) s
_R
S
%%Page: (1) 3
%%BeginPageSetup
_S
38 24 translate
/pagenum 1 def
/fname (listmap.java) def
/fdir () def
/ftail (listmap.java) def
% User defined strings:
/pagenumstr (1) def
/moddatestr (10/16/13) def
/modtimestr (17:10:32) def
/user_header_p true def
/user_header_left_str ($cmps012b-wm/Assignments/asg2j-jxref-lists/code/) def
/user_header_center_str () def
/user_header_right_str () def
/user_footer_p false def
%%EndPageSetup
column_borders
do_header
34.8 693 M (1:) s
56.4 693 M
(// $Id: listmap.java,v 1.5 2013-10-16 17:10:32-07 - - $) s
34.8 680 M (2:) s
34.8 667 M (3:) s
56.4 667 M
(import java.util.Iterator;) s
34.8 654 M (4:) s
56.4 654 M
(import java.util.Map.Entry;) s
34.8 641 M (5:) s
56.4 641 M
(import java.util.NoSuchElementException;) s
34.8 628 M (6:) s
56.4 628 M
(import static java.lang.System.*;) s
34.8 615 M (7:) s
34.8 602 M (8:) s
56.4 602 M
(class listmap implements Iterable<Entry<String,intqueue>> {) s
34.8 589 M (9:) s
27.6 576 M (10:) s
56.4 576 M
(   private class node implements Entry<String,intqueue> {) s
27.6 563 M (11:) s
56.4 563 M
(      String key;) s
27.6 550 M (12:) s
56.4 550 M
(      intqueue queue = new intqueue\(\);) s
27.6 537 M (13:) s
56.4 537 M
(      node link;) s
27.6 524 M (14:) s
56.4 524 M
(      public String getKey\(\) {) s
27.6 511 M (15:) s
56.4 511 M
(         return key;) s
27.6 498 M (16:) s
56.4 498 M
(      }) s
27.6 485 M (17:) s
56.4 485 M
(      public intqueue getValue\(\) {) s
27.6 472 M (18:) s
56.4 472 M
(         return queue;) s
27.6 459 M (19:) s
56.4 459 M
(      }) s
27.6 446 M (20:) s
56.4 446 M
(      public intqueue setValue \(intqueue queue\) {) s
27.6 433 M (21:) s
56.4 433 M
(         throw new UnsupportedOperationException\(\);) s
27.6 420 M (22:) s
56.4 420 M
(      }) s
27.6 407 M (23:) s
56.4 407 M
(   }) s
27.6 394 M (24:) s
56.4 394 M
(   private node head = null;) s
27.6 381 M (25:) s
27.6 368 M (26:) s
56.4 368 M
(   public listmap\(\) {) s
27.6 355 M (27:) s
56.4 355 M
(      // Not needed, since head defaults to null anyway.) s
27.6 342 M (28:) s
56.4 342 M
(   }) s
27.6 329 M (29:) s
27.6 316 M (30:) s
56.4 316 M
(   public void insert \(String key, int linenr\) {) s
27.6 303 M (31:) s
56.4 303 M
(      misc.trace \("insert", key, linenr\);) s
27.6 290 M (32:) s
56.4 290 M
(      //FIXME) s
27.6 277 M (33:) s
56.4 277 M
(   }) s
27.6 264 M (34:) s
27.6 251 M (35:) s
56.4 251 M
(   public Iterator<Entry<String,intqueue>> iterator\(\) {) s
27.6 238 M (36:) s
56.4 238 M
(      return new iterator\(\);) s
27.6 225 M (37:) s
56.4 225 M
(   }) s
27.6 212 M (38:) s
_R
S
%%Page: (2) 4
%%BeginPageSetup
_S
38 24 translate
/pagenum 2 def
/fname (listmap.java) def
/fdir () def
/ftail (listmap.java) def
% User defined strings:
/pagenumstr (2) def
/moddatestr (10/16/13) def
/modtimestr (17:10:32) def
/user_header_p true def
/user_header_left_str ($cmps012b-wm/Assignments/asg2j-jxref-lists/code/) def
/user_header_center_str () def
/user_header_right_str () def
/user_footer_p false def
%%EndPageSetup
column_borders
do_header
27.6 693 M (39:) s
27.6 680 M (40:) s
56.4 680 M
(   private class iterator) s
27.6 667 M (41:) s
56.4 667 M
(           implements Iterator<Entry<String,intqueue>> {) s
27.6 654 M (42:) s
56.4 654 M
(      node curr = head;) s
27.6 641 M (43:) s
27.6 628 M (44:) s
56.4 628 M
(      public boolean hasNext\(\) {) s
27.6 615 M (45:) s
56.4 615 M
(         return curr != null;) s
27.6 602 M (46:) s
56.4 602 M
(      }) s
27.6 589 M (47:) s
27.6 576 M (48:) s
56.4 576 M
(      public Entry<String,intqueue> next\(\) {) s
27.6 563 M (49:) s
56.4 563 M
(         if \(curr == null\) throw new NoSuchElementException\(\);) s
27.6 550 M (50:) s
56.4 550 M
(         node next = curr;) s
27.6 537 M (51:) s
56.4 537 M
(         curr = curr.link;) s
27.6 524 M (52:) s
56.4 524 M
(         return next;) s
27.6 511 M (53:) s
56.4 511 M
(      }) s
27.6 498 M (54:) s
27.6 485 M (55:) s
56.4 485 M
(      public void remove\(\) {) s
27.6 472 M (56:) s
56.4 472 M
(         throw new UnsupportedOperationException\(\);) s
27.6 459 M (57:) s
56.4 459 M
(      }) s
27.6 446 M (58:) s
27.6 433 M (59:) s
56.4 433 M
(   }) s
27.6 420 M (60:) s
27.6 407 M (61:) s
56.4 407 M
(}) s
_R
S
%%Page: (1) 5
%%BeginPageSetup
_S
38 24 translate
/pagenum 1 def
/fname (intqueue.java) def
/fdir () def
/ftail (intqueue.java) def
% User defined strings:
/pagenumstr (1) def
/moddatestr (10/16/13) def
/modtimestr (17:10:32) def
/user_header_p true def
/user_header_left_str ($cmps012b-wm/Assignments/asg2j-jxref-lists/code/) def
/user_header_center_str () def
/user_header_right_str () def
/user_footer_p false def
%%EndPageSetup
column_borders
do_header
34.8 693 M (1:) s
56.4 693 M
(// $Id: intqueue.java,v 1.4 2013-10-16 17:10:32-07 - - $) s
34.8 680 M (2:) s
34.8 667 M (3:) s
56.4 667 M
(import java.util.Iterator;) s
34.8 654 M (4:) s
56.4 654 M
(import java.util.NoSuchElementException;) s
34.8 641 M (5:) s
34.8 628 M (6:) s
56.4 628 M
(class intqueue implements Iterable<Integer> {) s
34.8 615 M (7:) s
34.8 602 M (8:) s
56.4 602 M
(   private class node {) s
34.8 589 M (9:) s
56.4 589 M
(      int linenr;) s
27.6 576 M (10:) s
56.4 576 M
(      node link;) s
27.6 563 M (11:) s
56.4 563 M
(   }) s
27.6 550 M (12:) s
56.4 550 M
(   private int count = 0;) s
27.6 537 M (13:) s
56.4 537 M
(   private node front = null;) s
27.6 524 M (14:) s
56.4 524 M
(   private node rear = null;) s
27.6 511 M (15:) s
27.6 498 M (16:) s
56.4 498 M
(   public void insert \(int number\) {) s
27.6 485 M (17:) s
56.4 485 M
(      ++count;) s
27.6 472 M (18:) s
56.4 472 M
(      misc.trace \(count\);) s
27.6 459 M (19:) s
56.4 459 M
(      //FIXME) s
27.6 446 M (20:) s
56.4 446 M
(   }) s
27.6 433 M (21:) s
27.6 420 M (22:) s
56.4 420 M
(   public boolean empty\(\) {) s
27.6 407 M (23:) s
56.4 407 M
(      return count == 0;) s
27.6 394 M (24:) s
56.4 394 M
(   }) s
27.6 381 M (25:) s
27.6 368 M (26:) s
56.4 368 M
(   public int getcount\(\) {) s
27.6 355 M (27:) s
56.4 355 M
(      return count;) s
27.6 342 M (28:) s
56.4 342 M
(   }) s
27.6 329 M (29:) s
27.6 316 M (30:) s
56.4 316 M
(   public Iterator<Integer> iterator\(\) {) s
27.6 303 M (31:) s
56.4 303 M
(      return new iterator\(\);) s
27.6 290 M (32:) s
56.4 290 M
(   }) s
27.6 277 M (33:) s
27.6 264 M (34:) s
56.4 264 M
(   private class iterator implements Iterator<Integer> {) s
27.6 251 M (35:) s
56.4 251 M
(      node curr = front;) s
27.6 238 M (36:) s
27.6 225 M (37:) s
56.4 225 M
(      public boolean hasNext\(\) {) s
27.6 212 M (38:) s
56.4 212 M
(         return curr != null;) s
27.6 199 M (39:) s
56.4 199 M
(      }) s
27.6 186 M (40:) s
27.6 173 M (41:) s
56.4 173 M
(      public Integer next\(\) {) s
27.6 160 M (42:) s
56.4 160 M
(         if \(curr == null\) throw new NoSuchElementException\(\);) s
27.6 147 M (43:) s
56.4 147 M
(         Integer next = curr.linenr;) s
27.6 134 M (44:) s
56.4 134 M
(         curr = curr.link;) s
27.6 121 M (45:) s
56.4 121 M
(         return next;) s
27.6 108 M (46:) s
56.4 108 M
(      }) s
27.6 95 M (47:) s
27.6 82 M (48:) s
56.4 82 M
(      public void remove\(\) {) s
27.6 69 M (49:) s
56.4 69 M
(         throw new UnsupportedOperationException\(\);) s
27.6 56 M (50:) s
56.4 56 M
(      }) s
27.6 43 M (51:) s
56.4 43 M
(   }) s
27.6 30 M (52:) s
27.6 17 M (53:) s
56.4 17 M
(}) s
27.6 4 M (54:) s
_R
S
%%Page: (1) 6
%%BeginPageSetup
_S
38 24 translate
/pagenum 1 def
/fname (misc.java) def
/fdir () def
/ftail (misc.java) def
% User defined strings:
/pagenumstr (1) def
/moddatestr (10/16/13) def
/modtimestr (17:10:32) def
/user_header_p true def
/user_header_left_str ($cmps012b-wm/Assignments/asg2j-jxref-lists/code/) def
/user_header_center_str () def
/user_header_right_str () def
/user_footer_p false def
%%EndPageSetup
column_borders
do_header
34.8 693 M (1:) s
56.4 693 M
(// $Id: misc.java,v 1.7 2013-10-11 19:24:18-07 - - $) s
34.8 680 M (2:) s
34.8 667 M (3:) s
56.4 667 M
(import static java.lang.System.*;) s
34.8 654 M (4:) s
34.8 641 M (5:) s
56.4 641 M
(class misc {) s
34.8 628 M (6:) s
56.4 628 M
(   public static final int EXIT_SUCCESS = 0;) s
34.8 615 M (7:) s
56.4 615 M
(   public static final int EXIT_FAILURE = 1;) s
34.8 602 M (8:) s
56.4 602 M
(   public static final String program_name =) s
34.8 589 M (9:) s
56.4 589 M
(                 basename \(getProperty \("java.class.path"\)\);) s
27.6 576 M (10:) s
56.4 576 M
(   public static int exit_status = EXIT_SUCCESS;) s
27.6 563 M (11:) s
27.6 550 M (12:) s
56.4 550 M
(   // constructor - prevents instantiation: only static fns.) s
27.6 537 M (13:) s
56.4 537 M
(   private misc\(\) {) s
27.6 524 M (14:) s
56.4 524 M
(      throw new UnsupportedOperationException\(\);) s
27.6 511 M (15:) s
56.4 511 M
(   }) s
27.6 498 M (16:) s
27.6 485 M (17:) s
56.4 485 M
(   // basename - strips the dirname and returns the basename.) s
27.6 472 M (18:) s
56.4 472 M
(   //            See:  man -s 3c basename) s
27.6 459 M (19:) s
56.4 459 M
(   public static String basename \(String pathname\) {) s
27.6 446 M (20:) s
56.4 446 M
(      if \(pathname == null || pathname.length\(\) == 0\) return ".";) s
27.6 433 M (21:) s
56.4 433 M
(      String[] paths = pathname.split \("/"\);) s
27.6 420 M (22:) s
56.4 420 M
(      return paths.length == 0 ? "." : paths[paths.length - 1];) s
27.6 407 M (23:) s
56.4 407 M
(   }) s
27.6 394 M (24:) s
27.6 381 M (25:) s
56.4 381 M
(   // trace - print a trace message to stderr) s
27.6 368 M (26:) s
56.4 368 M
(   public static void trace \(Object... args\) {) s
27.6 355 M (27:) s
56.4 355 M
(      StackTraceElement elt =) s
27.6 342 M (28:) s
56.4 342 M
(                  Thread.currentThread\(\).getStackTrace\(\)[2];) s
27.6 329 M (29:) s
56.4 329 M
(      err.printf \("%s[%d]", elt.getMethodName\(\),) s
27.6 316 M (30:) s
56.4 316 M
(                  elt.getLineNumber\(\)\);) s
27.6 303 M (31:) s
56.4 303 M
(      for \(Object arg: args\) err.printf \(": %s", arg\);) s
27.6 290 M (32:) s
56.4 290 M
(      err.printf \("%n"\);) s
27.6 277 M (33:) s
56.4 277 M
(   }) s
27.6 264 M (34:) s
27.6 251 M (35:) s
56.4 251 M
(   // warn - print a warning and set exit status to failure.) s
27.6 238 M (36:) s
56.4 238 M
(   public static void warn \(Object... args\) {) s
27.6 225 M (37:) s
56.4 225 M
(      err.printf \("%s", program_name\);) s
27.6 212 M (38:) s
56.4 212 M
(      for \(Object arg: args\) err.printf \(": %s", arg\);) s
27.6 199 M (39:) s
56.4 199 M
(      err.printf \("%n"\);) s
27.6 186 M (40:) s
56.4 186 M
(      exit_status = EXIT_FAILURE;) s
27.6 173 M (41:) s
56.4 173 M
(   }) s
27.6 160 M (42:) s
27.6 147 M (43:) s
56.4 147 M
(   // die - print a warning and exit program.) s
27.6 134 M (44:) s
56.4 134 M
(   public static void die \(Object... args\) {) s
27.6 121 M (45:) s
56.4 121 M
(      warn \(args\);) s
27.6 108 M (46:) s
56.4 108 M
(      exit \(exit_status\);) s
27.6 95 M (47:) s
56.4 95 M
(   }) s
27.6 82 M (48:) s
27.6 69 M (49:) s
56.4 69 M
(}) s
_R
S
%%Page: (1) 7
%%BeginPageSetup
_S
38 24 translate
/pagenum 1 def
/fname (Makefile) def
/fdir () def
/ftail (Makefile) def
% User defined strings:
/pagenumstr (1) def
/moddatestr (10/16/13) def
/modtimestr (17:10:32) def
/user_header_p true def
/user_header_left_str ($cmps012b-wm/Assignments/asg2j-jxref-lists/code/) def
/user_header_center_str () def
/user_header_right_str () def
/user_footer_p false def
%%EndPageSetup
column_borders
do_header
34.8 693 M (1:) s
56.4 693 M
(# $Id: Makefile,v 1.3 2013-10-11 19:24:18-07 - - $) s
34.8 680 M (2:) s
34.8 667 M (3:) s
56.4 667 M
(JAVASRC    = jxref.java listmap.java intqueue.java misc.java) s
34.8 654 M (4:) s
56.4 654 M
(SOURCES    = ${JAVASRC} Makefile README) s
34.8 641 M (5:) s
56.4 641 M
(ALLSOURCES = ${SOURCES} pxref.perl) s
34.8 628 M (6:) s
56.4 628 M
(MAINCLASS  = jxref) s
34.8 615 M (7:) s
56.4 615 M
(CLASSES    = ${JAVASRC:.java=.class}) s
34.8 602 M (8:) s
56.4 602 M
(JARCLASSES = ${CLASSES} intqueue\\$$*.class listmap\\$$*.class) s
34.8 589 M (9:) s
56.4 589 M
(JARFILE    = jxref) s
27.6 576 M (10:) s
56.4 576 M
(LISTING    = Listing.ps) s
27.6 563 M (11:) s
56.4 563 M
(SUBMITDIR  = cmps012b-wm.f13 asg2) s
27.6 550 M (12:) s
27.6 537 M (13:) s
56.4 537 M
(all : ${JARFILE}) s
27.6 524 M (14:) s
27.6 511 M (15:) s
56.4 511 M
(${JARFILE} : ${CLASSES}) s
27.6 498 M (16:) s
56.4 498 M
(        echo Main-class: ${MAINCLASS} >Manifest) s
27.6 485 M (17:) s
56.4 485 M
(        jar cvfm ${JARFILE} Manifest ${JARCLASSES}) s
27.6 472 M (18:) s
56.4 472 M
(        - rm Manifest) s
27.6 459 M (19:) s
56.4 459 M
(        chmod +x ${JARFILE}) s
27.6 446 M (20:) s
27.6 433 M (21:) s
56.4 433 M
(%.class : %.java) s
27.6 420 M (22:) s
56.4 420 M
(        - checksource $<) s
27.6 407 M (23:) s
56.4 407 M
(        - cid + $<) s
27.6 394 M (24:) s
56.4 394 M
(        javac $<) s
27.6 381 M (25:) s
27.6 368 M (26:) s
56.4 368 M
(clean :) s
27.6 355 M (27:) s
56.4 355 M
(        - rm ${JARCLASSES} Manifest) s
27.6 342 M (28:) s
27.6 329 M (29:) s
56.4 329 M
(spotless : clean) s
27.6 316 M (30:) s
56.4 316 M
(        - rm ${JARFILE}) s
27.6 303 M (31:) s
27.6 290 M (32:) s
56.4 290 M
(ci : ${ALLSOURCES}) s
27.6 277 M (33:) s
56.4 277 M
(        - checksource ${ALLSOURCES}) s
27.6 264 M (34:) s
56.4 264 M
(        cid + ${ALLSOURCES}) s
27.6 251 M (35:) s
27.6 238 M (36:) s
56.4 238 M
(lis : ${ALLSOURCES}) s
27.6 225 M (37:) s
56.4 225 M
(        mkpspdf -s12 ${LISTING} ${ALLSOURCES}) s
27.6 212 M (38:) s
27.6 199 M (39:) s
56.4 199 M
(submit : ${SOURCES}) s
27.6 186 M (40:) s
56.4 186 M
(        submit ${SUBMITDIR} ${SOURCES}) s
27.6 173 M (41:) s
27.6 160 M (42:) s
56.4 160 M
(again : ${ALLSOURCES}) s
27.6 147 M (43:) s
56.4 147 M
(        gmake --no-print-directory spotless ci all lis) s
27.6 134 M (44:) s
56.4 134 M
(        ) s
_R
S
%%Page: (1) 8
%%BeginPageSetup
_S
38 24 translate
/pagenum 1 def
/fname (README) def
/fdir () def
/ftail (README) def
% User defined strings:
/pagenumstr (1) def
/moddatestr (10/16/13) def
/modtimestr (17:10:32) def
/user_header_p true def
/user_header_left_str ($cmps012b-wm/Assignments/asg2j-jxref-lists/code/) def
/user_header_center_str () def
/user_header_right_str () def
/user_footer_p false def
%%EndPageSetup
column_borders
do_header
34.8 693 M (1:) s
56.4 693 M
(This directory contains starter code for your project and a) s
34.8 680 M (2:) s
56.4 680 M
(Makefile which can be used to build it.  Begin by copying this) s
34.8 667 M (3:) s
56.4 667 M
(directory int your private volume before beginning work.) s
34.8 654 M (4:) s
34.8 641 M (5:) s
56.4 641 M
(The Perl program is not part of your project, but is a reference) s
34.8 628 M (6:) s
56.4 628 M
(implementation.  Your program should produce the same output,) s
34.8 615 M (7:) s
56.4 615 M
(except possibly for minor variations in the format of the error) s
34.8 602 M (8:) s
56.4 602 M
(messages.) s
34.8 589 M (9:) s
27.6 576 M (10:) s
56.4 576 M
($Id: README,v 1.1 2013-01-24 19:22:48-08 - - $) s
_R
S
%%Page: (1) 9
%%BeginPageSetup
_S
38 24 translate
/pagenum 1 def
/fname (pxref.perl) def
/fdir () def
/ftail (pxref.perl) def
% User defined strings:
/pagenumstr (1) def
/moddatestr (10/16/13) def
/modtimestr (17:10:32) def
/user_header_p true def
/user_header_left_str ($cmps012b-wm/Assignments/asg2j-jxref-lists/code/) def
/user_header_center_str () def
/user_header_right_str () def
/user_footer_p false def
%%EndPageSetup
column_borders
do_header
34.8 693 M (1:) s
56.4 693 M
(#!/usr/bin/perl) s
34.8 680 M (2:) s
56.4 680 M
(# $Id: pxref.perl,v 1.2 2013-10-11 19:24:18-07 - - $) s
34.8 667 M (3:) s
56.4 667 M
(use strict;) s
34.8 654 M (4:) s
56.4 654 M
(use warnings;) s
34.8 641 M (5:) s
34.8 628 M (6:) s
56.4 628 M
($0 =~ s|^.*/||;) s
34.8 615 M (7:) s
56.4 615 M
(my $exit_status = 0;) s
34.8 602 M (8:) s
56.4 602 M
(END {exit $exit_status}) s
34.8 589 M (9:) s
56.4 589 M
(sub note\(@\) {print STDERR "@_"};) s
27.6 576 M (10:) s
56.4 576 M
($SIG{'__WARN__'} = sub {note @_; $exit_status = 1};) s
27.6 563 M (11:) s
56.4 563 M
($SIG{'__DIE__'} = sub {warn @_; exit};) s
27.6 550 M (12:) s
27.6 537 M (13:) s
56.4 537 M
(my $sep = ":" x 32;) s
27.6 524 M (14:) s
56.4 524 M
(push @ARGV, "-" unless @ARGV;) s
27.6 511 M (15:) s
27.6 498 M (16:) s
56.4 498 M
(for my $filename \(@ARGV\) {) s
27.6 485 M (17:) s
56.4 485 M
(   my %xref;) s
27.6 472 M (18:) s
56.4 472 M
(   open my $file, "<$filename") s
27.6 459 M (19:) s
56.4 459 M
(        or warn "$0: $filename: $!\\n" and next;) s
27.6 446 M (20:) s
56.4 446 M
(   while \(defined \(my $line = <$file>\)\) {) s
27.6 433 M (21:) s
56.4 433 M
(      push @{$xref{$1}}, $.) s
27.6 420 M (22:) s
56.4 420 M
(           while $line =~ s|^.*?\(\\w+\([-'.:/]\\w+\)*\)||;) s
27.6 407 M (23:) s
56.4 407 M
(   }) s
27.6 394 M (24:) s
56.4 394 M
(   close $file;) s
27.6 381 M (25:) s
56.4 381 M
(   print "$sep\\n$filename\\n$sep\\n";) s
27.6 368 M (26:) s
56.4 368 M
(   printf "%s [%d] %s\\n", $_, @{$xref{$_}} + 0,) s
27.6 355 M (27:) s
56.4 355 M
(          join " ", @{$xref{$_}}) s
27.6 342 M (28:) s
56.4 342 M
(          for sort keys %xref;) s
27.6 329 M (29:) s
56.4 329 M
(}) s
27.6 316 M (30:) s
_R
S
%%Trailer
%%Pages: 9
%%DocumentNeededResources: font Times-Roman Courier-Bold Times-Bold 
%%EOF
